[
  {
      "model": "category.category",
      "pk": 1,
      "fields": {
          "name": "bag",
          "code": "bag",
          "description": "Lorem ipsum dolor sit amet consectetur adipisicing elit. Deserunt voluptas laboriosam, est ad aliquid perferendis ea voluptates veritatis, magni ab voluptatum repudiandae nemo dignissimos dolor hic corporis at accusamus totam?\nVoluptas totam eveniet enim reiciendis quam iusto quidem? Facilis recusandae exercitationem deserunt velit deleniti repellat consequatur architecto repellendus, eum inventore, ipsa harum odit, sequi aut? Eaque cum suscipit quaerat amet?\nExcepturi eos suscipit beatae velit eveniet aspernatur, quam reprehenderit veritatis. At harum numquam doloremque, minus sed voluptas porro illo sequi facilis. At sint officiis deserunt minus ratione saepe placeat inventore.",
          "created": "2022-03-13T06:55:10.265Z",
          "updated": "2022-03-13T06:55:10.265Z"
      }
  },
  {
      "model": "category.category",
      "pk": 2,
      "fields": {
          "name": "dress",
          "code": "dress",
          "description": "Lorem ipsum dolor sit amet consectetur adipisicing elit. Deserunt voluptas laboriosam, est ad aliquid perferendis ea voluptates veritatis, magni ab voluptatum repudiandae nemo dignissimos dolor hic corporis at accusamus totam?\nVoluptas totam eveniet enim reiciendis quam iusto quidem? Facilis recusandae exercitationem deserunt velit deleniti repellat consequatur architecto repellendus, eum inventore, ipsa harum odit, sequi aut? Eaque cum suscipit quaerat amet?\nExcepturi eos suscipit beatae velit eveniet aspernatur, quam reprehenderit veritatis. At harum numquam doloremque, minus sed voluptas porro illo sequi facilis. At sint officiis deserunt minus ratione saepe placeat inventore.",
          "created": "2022-03-13T06:55:10.265Z",
          "updated": "2022-03-13T06:55:10.265Z"
      }
  },
  {
      "model": "category.category",
      "pk": 3,
      "fields": {
          "name": "flats",
          "code": "flats",
          "description": "Lorem ipsum dolor sit amet consectetur adipisicing elit. Deserunt voluptas laboriosam, est ad aliquid perferendis ea voluptates veritatis, magni ab voluptatum repudiandae nemo dignissimos dolor hic corporis at accusamus totam?\nVoluptas totam eveniet enim reiciendis quam iusto quidem? Facilis recusandae exercitationem deserunt velit deleniti repellat consequatur architecto repellendus, eum inventore, ipsa harum odit, sequi aut? Eaque cum suscipit quaerat amet?\nExcepturi eos suscipit beatae velit eveniet aspernatur, quam reprehenderit veritatis. At harum numquam doloremque, minus sed voluptas porro illo sequi facilis. At sint officiis deserunt minus ratione saepe placeat inventore.",
          "created": "2022-03-13T06:55:10.265Z",
          "updated": "2022-03-13T06:55:10.265Z"
      }
  },
  {
      "model": "category.category",
      "pk": 4,
      "fields": {
          "name": "hat",
          "code": "hat",
          "description": "Lorem ipsum dolor sit amet consectetur adipisicing elit. Deserunt voluptas laboriosam, est ad aliquid perferendis ea voluptates veritatis, magni ab voluptatum repudiandae nemo dignissimos dolor hic corporis at accusamus totam?\nVoluptas totam eveniet enim reiciendis quam iusto quidem? Facilis recusandae exercitationem deserunt velit deleniti repellat consequatur architecto repellendus, eum inventore, ipsa harum odit, sequi aut? Eaque cum suscipit quaerat amet?\nExcepturi eos suscipit beatae velit eveniet aspernatur, quam reprehenderit veritatis. At harum numquam doloremque, minus sed voluptas porro illo sequi facilis. At sint officiis deserunt minus ratione saepe placeat inventore.",
          "created": "2022-03-13T06:55:10.265Z",
          "updated": "2022-03-13T06:55:10.265Z"
      }
  },
  {
      "model": "category.category",
      "pk": 5,
      "fields": {
          "name": "heels",
          "code": "heels",
          "description": "Lorem ipsum dolor sit amet consectetur adipisicing elit. Deserunt voluptas laboriosam, est ad aliquid perferendis ea voluptates veritatis, magni ab voluptatum repudiandae nemo dignissimos dolor hic corporis at accusamus totam?\nVoluptas totam eveniet enim reiciendis quam iusto quidem? Facilis recusandae exercitationem deserunt velit deleniti repellat consequatur architecto repellendus, eum inventore, ipsa harum odit, sequi aut? Eaque cum suscipit quaerat amet?\nExcepturi eos suscipit beatae velit eveniet aspernatur, quam reprehenderit veritatis. At harum numquam doloremque, minus sed voluptas porro illo sequi facilis. At sint officiis deserunt minus ratione saepe placeat inventore.",
          "created": "2022-03-13T06:55:10.265Z",
          "updated": "2022-03-13T06:55:10.265Z"
      }
  },
  {
      "model": "category.category",
      "pk": 6,
      "fields": {
          "name": "jacket",
          "code": "jacket",
          "description": "Lorem ipsum dolor sit amet consectetur adipisicing elit. Deserunt voluptas laboriosam, est ad aliquid perferendis ea voluptates veritatis, magni ab voluptatum repudiandae nemo dignissimos dolor hic corporis at accusamus totam?\nVoluptas totam eveniet enim reiciendis quam iusto quidem? Facilis recusandae exercitationem deserunt velit deleniti repellat consequatur architecto repellendus, eum inventore, ipsa harum odit, sequi aut? Eaque cum suscipit quaerat amet?\nExcepturi eos suscipit beatae velit eveniet aspernatur, quam reprehenderit veritatis. At harum numquam doloremque, minus sed voluptas porro illo sequi facilis. At sint officiis deserunt minus ratione saepe placeat inventore.",
          "created": "2022-03-13T06:55:10.265Z",
          "updated": "2022-03-13T06:55:10.265Z"
      }
  },
  {
      "model": "category.category",
      "pk": 7,
      "fields": {
          "name": "pants",
          "code": "pants",
          "description": "Lorem ipsum dolor sit amet consectetur adipisicing elit. Deserunt voluptas laboriosam, est ad aliquid perferendis ea voluptates veritatis, magni ab voluptatum repudiandae nemo dignissimos dolor hic corporis at accusamus totam?\nVoluptas totam eveniet enim reiciendis quam iusto quidem? Facilis recusandae exercitationem deserunt velit deleniti repellat consequatur architecto repellendus, eum inventore, ipsa harum odit, sequi aut? Eaque cum suscipit quaerat amet?\nExcepturi eos suscipit beatae velit eveniet aspernatur, quam reprehenderit veritatis. At harum numquam doloremque, minus sed voluptas porro illo sequi facilis. At sint officiis deserunt minus ratione saepe placeat inventore.",
          "created": "2022-03-13T06:55:10.265Z",
          "updated": "2022-03-13T06:55:10.265Z"
      }
  },
  {
      "model": "category.category",
      "pk": 8,
      "fields": {
          "name": "shirt",
          "code": "shirt",
          "description": "Lorem ipsum dolor sit amet consectetur adipisicing elit. Deserunt voluptas laboriosam, est ad aliquid perferendis ea voluptates veritatis, magni ab voluptatum repudiandae nemo dignissimos dolor hic corporis at accusamus totam?\nVoluptas totam eveniet enim reiciendis quam iusto quidem? Facilis recusandae exercitationem deserunt velit deleniti repellat consequatur architecto repellendus, eum inventore, ipsa harum odit, sequi aut? Eaque cum suscipit quaerat amet?\nExcepturi eos suscipit beatae velit eveniet aspernatur, quam reprehenderit veritatis. At harum numquam doloremque, minus sed voluptas porro illo sequi facilis. At sint officiis deserunt minus ratione saepe placeat inventore.",
          "created": "2022-03-13T06:55:10.265Z",
          "updated": "2022-03-13T06:55:10.265Z"
      }
  },
  {
      "model": "category.category",
      "pk": 9,
      "fields": {
          "name": "shoes",
          "code": "shoes",
          "description": "Lorem ipsum dolor sit amet consectetur adipisicing elit. Deserunt voluptas laboriosam, est ad aliquid perferendis ea voluptates veritatis, magni ab voluptatum repudiandae nemo dignissimos dolor hic corporis at accusamus totam?\nVoluptas totam eveniet enim reiciendis quam iusto quidem? Facilis recusandae exercitationem deserunt velit deleniti repellat consequatur architecto repellendus, eum inventore, ipsa harum odit, sequi aut? Eaque cum suscipit quaerat amet?\nExcepturi eos suscipit beatae velit eveniet aspernatur, quam reprehenderit veritatis. At harum numquam doloremque, minus sed voluptas porro illo sequi facilis. At sint officiis deserunt minus ratione saepe placeat inventore.",
          "created": "2022-03-13T06:55:10.265Z",
          "updated": "2022-03-13T06:55:10.265Z"
      }
  },
  {
      "model": "category.category",
      "pk": 10,
      "fields": {
          "name": "shorts",
          "code": "shorts",
          "description": "Lorem ipsum dolor sit amet consectetur adipisicing elit. Deserunt voluptas laboriosam, est ad aliquid perferendis ea voluptates veritatis, magni ab voluptatum repudiandae nemo dignissimos dolor hic corporis at accusamus totam?\nVoluptas totam eveniet enim reiciendis quam iusto quidem? Facilis recusandae exercitationem deserunt velit deleniti repellat consequatur architecto repellendus, eum inventore, ipsa harum odit, sequi aut? Eaque cum suscipit quaerat amet?\nExcepturi eos suscipit beatae velit eveniet aspernatur, quam reprehenderit veritatis. At harum numquam doloremque, minus sed voluptas porro illo sequi facilis. At sint officiis deserunt minus ratione saepe placeat inventore.",
          "created": "2022-03-13T06:55:10.265Z",
          "updated": "2022-03-13T06:55:10.265Z"
      }
  },
  {
      "model": "category.category",
      "pk": 11,
      "fields": {
          "name": "skirt",
          "code": "skirt",
          "description": "Lorem ipsum dolor sit amet consectetur adipisicing elit. Deserunt voluptas laboriosam, est ad aliquid perferendis ea voluptates veritatis, magni ab voluptatum repudiandae nemo dignissimos dolor hic corporis at accusamus totam?\nVoluptas totam eveniet enim reiciendis quam iusto quidem? Facilis recusandae exercitationem deserunt velit deleniti repellat consequatur architecto repellendus, eum inventore, ipsa harum odit, sequi aut? Eaque cum suscipit quaerat amet?\nExcepturi eos suscipit beatae velit eveniet aspernatur, quam reprehenderit veritatis. At harum numquam doloremque, minus sed voluptas porro illo sequi facilis. At sint officiis deserunt minus ratione saepe placeat inventore.",
          "created": "2022-03-13T06:55:10.265Z",
          "updated": "2022-03-13T06:55:10.265Z"
      }
  },
  {
      "model": "category.category",
      "pk": 12,
      "fields": {
          "name": "sneakers",
          "code": "sneakers",
          "description": "Lorem ipsum dolor sit amet consectetur adipisicing elit. Deserunt voluptas laboriosam, est ad aliquid perferendis ea voluptates veritatis, magni ab voluptatum repudiandae nemo dignissimos dolor hic corporis at accusamus totam?\nVoluptas totam eveniet enim reiciendis quam iusto quidem? Facilis recusandae exercitationem deserunt velit deleniti repellat consequatur architecto repellendus, eum inventore, ipsa harum odit, sequi aut? Eaque cum suscipit quaerat amet?\nExcepturi eos suscipit beatae velit eveniet aspernatur, quam reprehenderit veritatis. At harum numquam doloremque, minus sed voluptas porro illo sequi facilis. At sint officiis deserunt minus ratione saepe placeat inventore.",
          "created": "2022-03-13T06:55:10.265Z",
          "updated": "2022-03-13T06:55:10.265Z"
      }
  },
  {
      "model": "category.category",
      "pk": 13,
      "fields": {
          "name": "tshirt",
          "code": "tshirt",
          "description": "Lorem ipsum dolor sit amet consectetur adipisicing elit. Deserunt voluptas laboriosam, est ad aliquid perferendis ea voluptates veritatis, magni ab voluptatum repudiandae nemo dignissimos dolor hic corporis at accusamus totam?\nVoluptas totam eveniet enim reiciendis quam iusto quidem? Facilis recusandae exercitationem deserunt velit deleniti repellat consequatur architecto repellendus, eum inventore, ipsa harum odit, sequi aut? Eaque cum suscipit quaerat amet?\nExcepturi eos suscipit beatae velit eveniet aspernatur, quam reprehenderit veritatis. At harum numquam doloremque, minus sed voluptas porro illo sequi facilis. At sint officiis deserunt minus ratione saepe placeat inventore.",
          "created": "2022-03-13T06:55:10.265Z",
          "updated": "2022-03-13T06:55:10.265Z"
      }
  }
]